%YAML 1.1
%TAG !u! tag:unity3d.com,2011:
--- !u!114 &11400000
MonoBehaviour:
  m_ObjectHideFlags: 0
  m_CorrespondingSourceObject: {fileID: 0}
  m_PrefabInternal: {fileID: 0}
  m_GameObject: {fileID: 0}
  m_Enabled: 1
  m_EditorHideFlags: 0
  m_Script: {fileID: 11500000, guid: 27712d9aa2d924ef4bfdf3b177b44418, type: 3}
  m_Name: VoxelGrasslandTop
  m_EditorClassIdentifier: 
  renderType: 0
  textureTop: {fileID: 2800000, guid: c6ce0569f8fa34c2c944a1b94996baa1, type: 3}
  textureSide: {fileID: 2800000, guid: 11d0aa59dc10341ceb76d825dc307a3d, type: 3}
  textureBottom: {fileID: 2800000, guid: d2491a3e6209446c99ce11c7b712910a, type: 3}
  textureIndexSide: 1
  textureIndexTop: 1
  textureIndexBottom: 0
  pickupSound: {fileID: 0}
  buildSound: {fileID: 8300000, guid: 3a395af208d574a28bcca472e43a8ae0, type: 3}
  footfalls:
  - {fileID: 8300000, guid: 601d127bc206b4f31b800044802281ac, type: 3}
  - {fileID: 8300000, guid: 4e1e2f5b5230941699c66f6261469eec, type: 3}
  jumpSound: {fileID: 8300000, guid: 4ae12959a77e4427b9d8ea45d19a81d8, type: 3}
  landingSound: {fileID: 8300000, guid: d374b5cdc21234dddbddd00d70f47e7b, type: 3}
  impactSound: {fileID: 8300000, guid: 752e6297b7e3c4ff58a7f8f09a6dd124, type: 3}
  destructionSound: {fileID: 8300000, guid: 4046885cae94341dfbaf679ce4a92ccc, type: 3}
  resistancePoints: 15
  canBeCollected: 1
  navigatable: 1
  windAnimation: 1
  model: {fileID: 0}
  offset: {x: 0, y: 0, z: 0}
  scale: {x: 1, y: 1, z: 1}
  rotation: {x: 0, y: 0, z: 0}
  promotesTo: {fileID: 0}
  spreads: 0
  spreadDelay: 0
  spreadDelayRandom: 0
  diveColor: {r: 0, g: 0.41, b: 0.63, a: 0.83}
  height: 13
  playerDamage: 0
  playerDamageDelay: 2
