%YAML 1.1
%TAG !u! tag:unity3d.com,2011:
--- !u!114 &11400000
MonoBehaviour:
  m_ObjectHideFlags: 0
  m_CorrespondingSourceObject: {fileID: 0}
  m_PrefabInternal: {fileID: 0}
  m_GameObject: {fileID: 0}
  m_Enabled: 1
  m_EditorHideFlags: 0
  m_Script: {fileID: 11500000, guid: 5dac75631074b4c98b0646cbfa8a0137, type: 3}
  m_Name: TreeSavannah1
  m_EditorClassIdentifier: 
  sizeX: 18
  sizeY: 18
  sizeZ: 18
  offsetX: 0
  offsetY: 0
  offsetZ: 0
  bits:
  - voxelIndex: 495
    voxelDefinition: {fileID: 11400000, guid: 45932e61807950f47a9cfb5b7c38c9c2, type: 2}
    isEmpty: 0
    color:
      serializedVersion: 2
      rgba: 0
  - voxelIndex: 819
    voxelDefinition: {fileID: 11400000, guid: 45932e61807950f47a9cfb5b7c38c9c2, type: 2}
    isEmpty: 0
    color:
      serializedVersion: 2
      rgba: 0
  - voxelIndex: 1143
    voxelDefinition: {fileID: 11400000, guid: 45932e61807950f47a9cfb5b7c38c9c2, type: 2}
    isEmpty: 0
    color:
      serializedVersion: 2
      rgba: 0
  - voxelIndex: 1449
    voxelDefinition: {fileID: 11400000, guid: 45932e61807950f47a9cfb5b7c38c9c2, type: 2}
    isEmpty: 0
    color:
      serializedVersion: 2
      rgba: 0
  - voxelIndex: 1773
    voxelDefinition: {fileID: 11400000, guid: 45932e61807950f47a9cfb5b7c38c9c2, type: 2}
    isEmpty: 0
    color:
      serializedVersion: 2
      rgba: 0
  - voxelIndex: 2061
    voxelDefinition: {fileID: 11400000, guid: efac73a350f453140963bfddf9a406d6, type: 2}
    isEmpty: 0
    color:
      serializedVersion: 2
      rgba: 0
  - voxelIndex: 2094
    voxelDefinition: {fileID: 11400000, guid: efac73a350f453140963bfddf9a406d6, type: 2}
    isEmpty: 0
    color:
      serializedVersion: 2
      rgba: 0
  - voxelIndex: 2097
    voxelDefinition: {fileID: 11400000, guid: 45932e61807950f47a9cfb5b7c38c9c2, type: 2}
    isEmpty: 0
    color:
      serializedVersion: 2
      rgba: 0
  - voxelIndex: 2099
    voxelDefinition: {fileID: 11400000, guid: efac73a350f453140963bfddf9a406d6, type: 2}
    isEmpty: 0
    color:
      serializedVersion: 2
      rgba: 0
  - voxelIndex: 2118
    voxelDefinition: {fileID: 11400000, guid: efac73a350f453140963bfddf9a406d6, type: 2}
    isEmpty: 0
    color:
      serializedVersion: 2
      rgba: 0
  - voxelIndex: 2152
    voxelDefinition: {fileID: 11400000, guid: efac73a350f453140963bfddf9a406d6, type: 2}
    isEmpty: 0
    color:
      serializedVersion: 2
      rgba: 0
  - voxelIndex: 2385
    voxelDefinition: {fileID: 11400000, guid: efac73a350f453140963bfddf9a406d6, type: 2}
    isEmpty: 0
    color:
      serializedVersion: 2
      rgba: 0
  - voxelIndex: 2401
    voxelDefinition: {fileID: 11400000, guid: efac73a350f453140963bfddf9a406d6, type: 2}
    isEmpty: 0
    color:
      serializedVersion: 2
      rgba: 0
  - voxelIndex: 2402
    voxelDefinition: {fileID: 11400000, guid: efac73a350f453140963bfddf9a406d6, type: 2}
    isEmpty: 0
    color:
      serializedVersion: 2
      rgba: 0
  - voxelIndex: 2405
    voxelDefinition: {fileID: 11400000, guid: efac73a350f453140963bfddf9a406d6, type: 2}
    isEmpty: 0
    color:
      serializedVersion: 2
      rgba: 0
  - voxelIndex: 2418
    voxelDefinition: {fileID: 11400000, guid: efac73a350f453140963bfddf9a406d6, type: 2}
    isEmpty: 0
    color:
      serializedVersion: 2
      rgba: 0
  - voxelIndex: 2423
    voxelDefinition: {fileID: 11400000, guid: efac73a350f453140963bfddf9a406d6, type: 2}
    isEmpty: 0
    color:
      serializedVersion: 2
      rgba: 0
  - voxelIndex: 2439
    voxelDefinition: {fileID: 11400000, guid: 45932e61807950f47a9cfb5b7c38c9c2, type: 2}
    isEmpty: 0
    color:
      serializedVersion: 2
      rgba: 0
  - voxelIndex: 2442
    voxelDefinition: {fileID: 11400000, guid: efac73a350f453140963bfddf9a406d6, type: 2}
    isEmpty: 0
    color:
      serializedVersion: 2
      rgba: 0
  - voxelIndex: 2455
    voxelDefinition: {fileID: 11400000, guid: efac73a350f453140963bfddf9a406d6, type: 2}
    isEmpty: 0
    color:
      serializedVersion: 2
      rgba: 0
  - voxelIndex: 2459
    voxelDefinition: {fileID: 11400000, guid: efac73a350f453140963bfddf9a406d6, type: 2}
    isEmpty: 0
    color:
      serializedVersion: 2
      rgba: 0
  - voxelIndex: 2474
    voxelDefinition: {fileID: 11400000, guid: efac73a350f453140963bfddf9a406d6, type: 2}
    isEmpty: 0
    color:
      serializedVersion: 2
      rgba: 0
  - voxelIndex: 2476
    voxelDefinition: {fileID: 11400000, guid: efac73a350f453140963bfddf9a406d6, type: 2}
    isEmpty: 0
    color:
      serializedVersion: 2
      rgba: 0
  - voxelIndex: 2493
    voxelDefinition: {fileID: 11400000, guid: efac73a350f453140963bfddf9a406d6, type: 2}
    isEmpty: 0
    color:
      serializedVersion: 2
      rgba: 0
  - voxelIndex: 2709
    voxelDefinition: {fileID: 11400000, guid: efac73a350f453140963bfddf9a406d6, type: 2}
    isEmpty: 0
    color:
      serializedVersion: 2
      rgba: 0
  - voxelIndex: 2725
    voxelDefinition: {fileID: 11400000, guid: efac73a350f453140963bfddf9a406d6, type: 2}
    isEmpty: 0
    color:
      serializedVersion: 2
      rgba: 0
  - voxelIndex: 2726
    voxelDefinition: {fileID: 11400000, guid: efac73a350f453140963bfddf9a406d6, type: 2}
    isEmpty: 0
    color:
      serializedVersion: 2
      rgba: 0
  - voxelIndex: 2727
    voxelDefinition: {fileID: 11400000, guid: efac73a350f453140963bfddf9a406d6, type: 2}
    isEmpty: 0
    color:
      serializedVersion: 2
      rgba: 0
  - voxelIndex: 2728
    voxelDefinition: {fileID: 11400000, guid: efac73a350f453140963bfddf9a406d6, type: 2}
    isEmpty: 0
    color:
      serializedVersion: 2
      rgba: 0
  - voxelIndex: 2729
    voxelDefinition: {fileID: 11400000, guid: efac73a350f453140963bfddf9a406d6, type: 2}
    isEmpty: 0
    color:
      serializedVersion: 2
      rgba: 0
  - voxelIndex: 2742
    voxelDefinition: {fileID: 11400000, guid: efac73a350f453140963bfddf9a406d6, type: 2}
    isEmpty: 0
    color:
      serializedVersion: 2
      rgba: 0
  - voxelIndex: 2743
    voxelDefinition: {fileID: 11400000, guid: efac73a350f453140963bfddf9a406d6, type: 2}
    isEmpty: 0
    color:
      serializedVersion: 2
      rgba: 0
  - voxelIndex: 2744
    voxelDefinition: {fileID: 11400000, guid: efac73a350f453140963bfddf9a406d6, type: 2}
    isEmpty: 0
    color:
      serializedVersion: 2
      rgba: 0
  - voxelIndex: 2745
    voxelDefinition: {fileID: 11400000, guid: efac73a350f453140963bfddf9a406d6, type: 2}
    isEmpty: 0
    color:
      serializedVersion: 2
      rgba: 0
  - voxelIndex: 2746
    voxelDefinition: {fileID: 11400000, guid: efac73a350f453140963bfddf9a406d6, type: 2}
    isEmpty: 0
    color:
      serializedVersion: 2
      rgba: 0
  - voxelIndex: 2747
    voxelDefinition: {fileID: 11400000, guid: efac73a350f453140963bfddf9a406d6, type: 2}
    isEmpty: 0
    color:
      serializedVersion: 2
      rgba: 0
  - voxelIndex: 2762
    voxelDefinition: {fileID: 11400000, guid: efac73a350f453140963bfddf9a406d6, type: 2}
    isEmpty: 0
    color:
      serializedVersion: 2
      rgba: 0
  - voxelIndex: 2763
    voxelDefinition: {fileID: 11400000, guid: 45932e61807950f47a9cfb5b7c38c9c2, type: 2}
    isEmpty: 0
    color:
      serializedVersion: 2
      rgba: 0
  - voxelIndex: 2764
    voxelDefinition: {fileID: 11400000, guid: efac73a350f453140963bfddf9a406d6, type: 2}
    isEmpty: 0
    color:
      serializedVersion: 2
      rgba: 0
  - voxelIndex: 2765
    voxelDefinition: {fileID: 11400000, guid: efac73a350f453140963bfddf9a406d6, type: 2}
    isEmpty: 0
    color:
      serializedVersion: 2
      rgba: 0
  - voxelIndex: 2766
    voxelDefinition: {fileID: 11400000, guid: efac73a350f453140963bfddf9a406d6, type: 2}
    isEmpty: 0
    color:
      serializedVersion: 2
      rgba: 0
  - voxelIndex: 2779
    voxelDefinition: {fileID: 11400000, guid: efac73a350f453140963bfddf9a406d6, type: 2}
    isEmpty: 0
    color:
      serializedVersion: 2
      rgba: 0
  - voxelIndex: 2781
    voxelDefinition: {fileID: 11400000, guid: efac73a350f453140963bfddf9a406d6, type: 2}
    isEmpty: 0
    color:
      serializedVersion: 2
      rgba: 0
  - voxelIndex: 2783
    voxelDefinition: {fileID: 11400000, guid: efac73a350f453140963bfddf9a406d6, type: 2}
    isEmpty: 0
    color:
      serializedVersion: 2
      rgba: 0
  - voxelIndex: 2798
    voxelDefinition: {fileID: 11400000, guid: efac73a350f453140963bfddf9a406d6, type: 2}
    isEmpty: 0
    color:
      serializedVersion: 2
      rgba: 0
  - voxelIndex: 2799
    voxelDefinition: {fileID: 11400000, guid: efac73a350f453140963bfddf9a406d6, type: 2}
    isEmpty: 0
    color:
      serializedVersion: 2
      rgba: 0
  - voxelIndex: 2800
    voxelDefinition: {fileID: 11400000, guid: efac73a350f453140963bfddf9a406d6, type: 2}
    isEmpty: 0
    color:
      serializedVersion: 2
      rgba: 0
  - voxelIndex: 2817
    voxelDefinition: {fileID: 11400000, guid: efac73a350f453140963bfddf9a406d6, type: 2}
    isEmpty: 0
    color:
      serializedVersion: 2
      rgba: 0
  - voxelIndex: 3033
    voxelDefinition: {fileID: 11400000, guid: efac73a350f453140963bfddf9a406d6, type: 2}
    isEmpty: 0
    color:
      serializedVersion: 2
      rgba: 0
  - voxelIndex: 3050
    voxelDefinition: {fileID: 11400000, guid: efac73a350f453140963bfddf9a406d6, type: 2}
    isEmpty: 0
    color:
      serializedVersion: 2
      rgba: 0
  - voxelIndex: 3051
    voxelDefinition: {fileID: 11400000, guid: efac73a350f453140963bfddf9a406d6, type: 2}
    isEmpty: 0
    color:
      serializedVersion: 2
      rgba: 0
  - voxelIndex: 3052
    voxelDefinition: {fileID: 11400000, guid: efac73a350f453140963bfddf9a406d6, type: 2}
    isEmpty: 0
    color:
      serializedVersion: 2
      rgba: 0
  - voxelIndex: 3067
    voxelDefinition: {fileID: 11400000, guid: efac73a350f453140963bfddf9a406d6, type: 2}
    isEmpty: 0
    color:
      serializedVersion: 2
      rgba: 0
  - voxelIndex: 3068
    voxelDefinition: {fileID: 11400000, guid: efac73a350f453140963bfddf9a406d6, type: 2}
    isEmpty: 0
    color:
      serializedVersion: 2
      rgba: 0
  - voxelIndex: 3069
    voxelDefinition: {fileID: 11400000, guid: efac73a350f453140963bfddf9a406d6, type: 2}
    isEmpty: 0
    color:
      serializedVersion: 2
      rgba: 0
  - voxelIndex: 3070
    voxelDefinition: {fileID: 11400000, guid: efac73a350f453140963bfddf9a406d6, type: 2}
    isEmpty: 0
    color:
      serializedVersion: 2
      rgba: 0
  - voxelIndex: 3071
    voxelDefinition: {fileID: 11400000, guid: efac73a350f453140963bfddf9a406d6, type: 2}
    isEmpty: 0
    color:
      serializedVersion: 2
      rgba: 0
  - voxelIndex: 3085
    voxelDefinition: {fileID: 11400000, guid: efac73a350f453140963bfddf9a406d6, type: 2}
    isEmpty: 0
    color:
      serializedVersion: 2
      rgba: 0
  - voxelIndex: 3086
    voxelDefinition: {fileID: 11400000, guid: efac73a350f453140963bfddf9a406d6, type: 2}
    isEmpty: 0
    color:
      serializedVersion: 2
      rgba: 0
  - voxelIndex: 3087
    voxelDefinition: {fileID: 11400000, guid: efac73a350f453140963bfddf9a406d6, type: 2}
    isEmpty: 0
    color:
      serializedVersion: 2
      rgba: 0
  - voxelIndex: 3088
    voxelDefinition: {fileID: 11400000, guid: efac73a350f453140963bfddf9a406d6, type: 2}
    isEmpty: 0
    color:
      serializedVersion: 2
      rgba: 0
  - voxelIndex: 3089
    voxelDefinition: {fileID: 11400000, guid: efac73a350f453140963bfddf9a406d6, type: 2}
    isEmpty: 0
    color:
      serializedVersion: 2
      rgba: 0
  - voxelIndex: 3103
    voxelDefinition: {fileID: 11400000, guid: efac73a350f453140963bfddf9a406d6, type: 2}
    isEmpty: 0
    color:
      serializedVersion: 2
      rgba: 0
  - voxelIndex: 3104
    voxelDefinition: {fileID: 11400000, guid: efac73a350f453140963bfddf9a406d6, type: 2}
    isEmpty: 0
    color:
      serializedVersion: 2
      rgba: 0
  - voxelIndex: 3105
    voxelDefinition: {fileID: 11400000, guid: efac73a350f453140963bfddf9a406d6, type: 2}
    isEmpty: 0
    color:
      serializedVersion: 2
      rgba: 0
  - voxelIndex: 3106
    voxelDefinition: {fileID: 11400000, guid: efac73a350f453140963bfddf9a406d6, type: 2}
    isEmpty: 0
    color:
      serializedVersion: 2
      rgba: 0
  - voxelIndex: 3107
    voxelDefinition: {fileID: 11400000, guid: efac73a350f453140963bfddf9a406d6, type: 2}
    isEmpty: 0
    color:
      serializedVersion: 2
      rgba: 0
  - voxelIndex: 3122
    voxelDefinition: {fileID: 11400000, guid: efac73a350f453140963bfddf9a406d6, type: 2}
    isEmpty: 0
    color:
      serializedVersion: 2
      rgba: 0
  - voxelIndex: 3123
    voxelDefinition: {fileID: 11400000, guid: efac73a350f453140963bfddf9a406d6, type: 2}
    isEmpty: 0
    color:
      serializedVersion: 2
      rgba: 0
  - voxelIndex: 3124
    voxelDefinition: {fileID: 11400000, guid: efac73a350f453140963bfddf9a406d6, type: 2}
    isEmpty: 0
    color:
      serializedVersion: 2
      rgba: 0
  - voxelIndex: 3393
    voxelDefinition: {fileID: 11400000, guid: efac73a350f453140963bfddf9a406d6, type: 2}
    isEmpty: 0
    color:
      serializedVersion: 2
      rgba: 0
  - voxelIndex: 3410
    voxelDefinition: {fileID: 11400000, guid: efac73a350f453140963bfddf9a406d6, type: 2}
    isEmpty: 0
    color:
      serializedVersion: 2
      rgba: 0
  - voxelIndex: 3411
    voxelDefinition: {fileID: 11400000, guid: efac73a350f453140963bfddf9a406d6, type: 2}
    isEmpty: 0
    color:
      serializedVersion: 2
      rgba: 0
  - voxelIndex: 3412
    voxelDefinition: {fileID: 11400000, guid: efac73a350f453140963bfddf9a406d6, type: 2}
    isEmpty: 0
    color:
      serializedVersion: 2
      rgba: 0
  - voxelIndex: 3429
    voxelDefinition: {fileID: 11400000, guid: efac73a350f453140963bfddf9a406d6, type: 2}
    isEmpty: 0
    color:
      serializedVersion: 2
      rgba: 0
