%YAML 1.1
%TAG !u! tag:unity3d.com,2011:
--- !u!114 &11400000
MonoBehaviour:
  m_ObjectHideFlags: 0
  m_CorrespondingSourceObject: {fileID: 0}
  m_PrefabInternal: {fileID: 0}
  m_GameObject: {fileID: 0}
  m_Enabled: 1
  m_EditorHideFlags: 0
  m_Script: {fileID: 11500000, guid: 2b11f622d92bb46c38fd5a3a2a3198f5, type: 3}
  m_Name: Desert
  m_EditorClassIdentifier: 
  voxelTop: {fileID: 11400000, guid: 3721733f4fd16437ca2494763a1b374f, type: 2}
  voxelDirt: {fileID: 11400000, guid: 0b48ff36c991c4804aa548bbb19458d0, type: 2}
  treeDensity: 0.01
  trees:
  - tree: {fileID: 11400000, guid: 1af1c96406a464ba691634e6eba6c424, type: 2}
    probability: 0.25
  - tree: {fileID: 11400000, guid: ad31ee142b4b54b279be0cc50d1a9bdb, type: 2}
    probability: 0.25
  - tree: {fileID: 11400000, guid: b7ab1a26fff29474eac472dd242d84bb, type: 2}
    probability: 0.25
  - tree: {fileID: 11400000, guid: 9ac26ebe8614043a7be160c93d35a411, type: 2}
    probability: 0.25
  vegetationDensity: 0.05
  vegetation: []
  zones:
  - elevationMin: 0
    elevationMax: 0.5
    moistureMin: 0
    moistureMax: 0.15
  - elevationMin: 0.5
    elevationMax: 0.75
    moistureMin: 0.15
    moistureMax: 0.35
