%YAML 1.1
%TAG !u! tag:unity3d.com,2011:
--- !u!114 &11400000
MonoBehaviour:
  m_ObjectHideFlags: 0
  m_CorrespondingSourceObject: {fileID: 0}
  m_PrefabInternal: {fileID: 0}
  m_GameObject: {fileID: 0}
  m_Enabled: 1
  m_EditorHideFlags: 0
  m_Script: {fileID: 11500000, guid: 27712d9aa2d924ef4bfdf3b177b44418, type: 3}
  m_Name: VoxelRainforestTop
  m_EditorClassIdentifier: 
  renderType: 0
  textureTop: {fileID: 2800000, guid: a4162f22a11f1456cad575637423df22, type: 3}
  textureSide: {fileID: 2800000, guid: 172cef6647ac24e51a773c7e2d5b3b35, type: 3}
  textureBottom: {fileID: 2800000, guid: 1c8187f88301a4e40a6e20362784b145, type: 3}
  textureIndexSide: 0
  textureIndexTop: 0
  textureIndexBottom: 0
  pickupSound: {fileID: 0}
  buildSound: {fileID: 8300000, guid: 3a395af208d574a28bcca472e43a8ae0, type: 3}
  footfalls:
  - {fileID: 8300000, guid: 601d127bc206b4f31b800044802281ac, type: 3}
  - {fileID: 8300000, guid: 4e1e2f5b5230941699c66f6261469eec, type: 3}
  jumpSound: {fileID: 8300000, guid: 4ae12959a77e4427b9d8ea45d19a81d8, type: 3}
  landingSound: {fileID: 8300000, guid: d374b5cdc21234dddbddd00d70f47e7b, type: 3}
  impactSound: {fileID: 8300000, guid: 4c387618be11a4788a01f59a653ac278, type: 3}
  destructionSound: {fileID: 8300000, guid: 5a6e6cb6c17654bf594121fea4a686a2, type: 3}
  resistancePoints: 30
  canBeCollected: 1
  navigatable: 1
  windAnimation: 1
  model: {fileID: 0}
  offset: {x: 0, y: 0, z: 0}
  scale: {x: 1, y: 1, z: 1}
  rotation: {x: 0, y: 0, z: 0}
  promotesTo: {fileID: 0}
  spreads: 0
  spreadDelay: 0
  spreadDelayRandom: 0
  diveColor: {r: 0, g: 0.41, b: 0.63, a: 0.83}
  height: 13
  playerDamage: 0
  playerDamageDelay: 2
