%YAML 1.1
%TAG !u! tag:unity3d.com,2011:
--- !u!114 &11400000
MonoBehaviour:
  m_ObjectHideFlags: 0
  m_CorrespondingSourceObject: {fileID: 0}
  m_PrefabInternal: {fileID: 0}
  m_GameObject: {fileID: 0}
  m_Enabled: 1
  m_EditorHideFlags: 0
  m_Script: {fileID: 11500000, guid: 5dac75631074b4c98b0646cbfa8a0137, type: 3}
  m_Name: CactusTree1
  m_EditorClassIdentifier: 
  sizeX: 16
  sizeY: 16
  sizeZ: 16
  offsetX: 0
  offsetY: 0
  offsetZ: 0
  bits:
  - voxelIndex: 135
    voxelDefinition: {fileID: 11400000, guid: 0de91b26dc32640c5b26e647ff4ad0c3, type: 2}
    isEmpty: 0
    color:
      serializedVersion: 2
      rgba: 4294967295
  - voxelIndex: 391
    voxelDefinition: {fileID: 11400000, guid: 0de91b26dc32640c5b26e647ff4ad0c3, type: 2}
    isEmpty: 0
    color:
      serializedVersion: 2
      rgba: 4294967295
  - voxelIndex: 647
    voxelDefinition: {fileID: 11400000, guid: 0de91b26dc32640c5b26e647ff4ad0c3, type: 2}
    isEmpty: 0
    color:
      serializedVersion: 2
      rgba: 4294967295
  - voxelIndex: 903
    voxelDefinition: {fileID: 11400000, guid: 0de91b26dc32640c5b26e647ff4ad0c3, type: 2}
    isEmpty: 0
    color:
      serializedVersion: 2
      rgba: 4294967295
  - voxelIndex: 1159
    voxelDefinition: {fileID: 11400000, guid: 0de91b26dc32640c5b26e647ff4ad0c3, type: 2}
    isEmpty: 0
    color:
      serializedVersion: 2
      rgba: 4294967295
  - voxelIndex: 1415
    voxelDefinition: {fileID: 11400000, guid: 0de91b26dc32640c5b26e647ff4ad0c3, type: 2}
    isEmpty: 0
    color:
      serializedVersion: 2
      rgba: 4294967295
  - voxelIndex: 1671
    voxelDefinition: {fileID: 11400000, guid: 0de91b26dc32640c5b26e647ff4ad0c3, type: 2}
    isEmpty: 0
    color:
      serializedVersion: 2
      rgba: 4294967295
  - voxelIndex: 1927
    voxelDefinition: {fileID: 11400000, guid: 0de91b26dc32640c5b26e647ff4ad0c3, type: 2}
    isEmpty: 0
    color:
      serializedVersion: 2
      rgba: 4294967295
  - voxelIndex: 2183
    voxelDefinition: {fileID: 11400000, guid: 0de91b26dc32640c5b26e647ff4ad0c3, type: 2}
    isEmpty: 0
    color:
      serializedVersion: 2
      rgba: 4294967295
