[
    {
        "id": 0,
	    "amount": 1,
        "title": "AK-47",
        "value": 2700,
        "stackable": true,
        "slug": "ak_47"
    },
    {
        "id": 1,
	    "amount": 1,
        "title": "M4",
        "value": 3100,
        "stackable": false,
        "slug": "m4"
    },
    {
        "id": 2,
	    "amount": 1,
        "title": "Armor",
        "value": 650,
        "stackable": false,
        "slug": "armor"
    },
    {
        "id": 3,
	    "amount": 12,
        "title": "Ammo",
        "value": 500,
        "stackable": true,
        "slug": "ammo"
    }
]